4.1 Introduction to Data Sets | R Programming: Zero to Pro
…
In this section, we will introduce two datasets that will be used extensively throughout the rest of the book to illustrate necessary concepts like data import and export, visualization, data manipulation, etc. This chapter will greatly enhance your ability in working independently on your own project by integrating the knowledge and skills from the previous chapters.

4.1.1 Gapminder Data Set

We will first introduce a dataset gm2004, located in the R package r02pro, the companion package of this book. The gm2004 dataset is created from the gapminder (https://www.gapminder.org/) website from a wide range of public health related topics. In particular, gm2004 contains 472 observations and 23 health related variables collected in the year 2004. Each observation (row) corresponds to a specific country, with columns representing features like mortality, health spending, and other demographic information.

Let’s begin by loading the r02pro and tibble packages since gm2004 is in a tibble format.

library(r02pro)
library(tibble)

After loading the two packages, you can type gm2004 to have a quick look of the dataset.

gm2004
#> # A tibble: 472 × 23
#>    country      year gender conti…¹ region popul…²   BMI liver…³ lungc…⁴ chole…⁵
#>    <chr>       <dbl> <chr>  <chr>   <chr>    <dbl> <dbl>   <dbl>   <dbl>   <dbl>
#>  1 Albania      2004 female Europe  South…  3090    25.5    5.66   11       4.9 
#>  2 Andorra      2004 female <NA>    <NA>      78.9  26.3    2.39   14.6     5.48
#>  3 United Ara…  2004 female Asia    Weste…  4590    29.3    4.29   17.2     5.31
#>  4 Argentina    2004 female Americ… South… 38900    27.1    3.36   12.7     5.09
#>  5 Armenia      2004 female Asia    Weste…  2980    26.7    8.23   10.5     4.79
#>  6 Australia    2004 female Oceania Austr… 20200    26.6    2.28   24       5.26
#>  7 Austria      2004 female Europe  Weste…  8250    25      4.12   19.4     5.32
#>  8 Azerbaijan   2004 female Asia    Weste…  8540    27      7.09    7.21    4.65
#>  9 Belgium      2004 female Europe  Weste… 10500    25.1    2.65   18.4     5.38
#> 10 Burkina Fa…  2004 female Africa  Weste… 13400    21.4   10.1     3.43    4.1 
#> # … with 462 more rows, 13 more variables: life_expectancy <dbl>, sugar <dbl>,
#> #   health_spending <dbl>, GDP_per_capita <dbl>, HDI <dbl>, HDI_category <chr>,
#> #   smoking <dbl>, food_supply <dbl>, owid_edu_idx <dbl>,
#> #   average_daily_income <dbl>, income_per_person <dbl>, sanitation <dbl>,
#> #   child_mortality <dbl>, and abbreviated variable names ¹​continent,
#> #   ²​population, ³​livercancer_newcases, ⁴​lungcancer_newcases, ⁵​cholesterol
…
The str() function lists out all variables in the dataset with their corresponding type, length, and each variable’s first several values.

4.1.2 Small Ames Housing Price Data Set

Next, we will introduce the sahp dataset, which is part of the Ames Housing Price data. For your convenience, we have also included sahp in the R package r02pro. Similarly, you can type sahp to have a quick look of the dataset.

sahp
#> # A tibble: 165 × 12
#>    dt_sold    bedroom bathroom gar_car oa_qual liv_area lot_area house…¹ kit_q…²
#>    <date>       <dbl>    <dbl>   <dbl>   <dbl>    <dbl>    <dbl> <chr>   <chr>  
#>  1 2010-03-25       3      2.5       2       6     1479    13517 2Story  Good   
#>  2 2009-04-10       4      3.5       2       7     2122    11492 2Story  Good   
#>  3 2010-01-15       3      2         1       5     1057     7922 1Story  Good   
#>  4 2010-04-19       3      2.5       2       5     1444     9802 2Story  Average
#>  5 2010-03-22       3      2         2       6     1445    14235 1.5Fin  Average
#>  6 2010-06-06       2      2.5       2       6     1888    16492 1Story  Good   
#>  7 2006-06-14       2      3         2       6     1072     3675 SFoyer  Average
#>  8 2010-05-08       3      2         2       5     1188    12160 1Story  Average
#>  9 2007-06-14       2      1         1       5      924    15783 1Story  Average
#> 10 2007-09-01       5      2.5       2       5     2080    11606 2Story  Fair   
#> # … with 155 more rows, 3 more variables: heat_qual <chr>, central_air <chr>,
#> #   sale_price <dbl>, and abbreviated variable names ¹​house_style, ²​kit_qual
…
