3.4 Tibble | R Programming: Zero to Pro
…
Another way to create a tibble is using the as_tibble() function on a data frame.

my_data_frame <- data.frame(animal, year,  healthy)
as_tibble(my_data_frame)

From the output, we can see that tibbles show the variable type under the name, which is very helpful. Another useful feature of tibble compare to data frame is that when you check its value, the output only shows at most the first 10 rows and the number of columns that can fit the output window, which avoids the console to be overcrowded.

x <- 1:1e5
tibble(id = x, value = sin(x))
#> # A tibble: 100,000 x 2
#>       id  value
#>    <int>  <dbl>
#>  1     1  0.841
#>  2     2  0.909
#>  3     3  0.141
#>  4     4 -0.757
#>  5     5 -0.959
#>  6     6 -0.279
#>  7     7  0.657
#>  8     8  0.989
#>  9     9  0.412
#> 10    10 -0.544
#> # … with 99,990 more rows
…
